module git.flightfactor.aero/x-updater-client

go 1.20

require (
	fyne.io/fyne/v2 v2.3.5
	github.com/volatiletech/null/v8 v8.1.2
)

require (
	fyne.io/systray v1.10.1-0.20230602210930-b6a2d6ca2a7b // indirect
	github.com/davecgh/go-spew v1.1.1 // indirect
	github.com/fredbi/uri v0.1.0 // indirect
	github.com/friendsofgo/errors v0.9.2 // indirect
	github.com/fsnotify/fsnotify v1.5.4 // indirect
	github.com/fyne-io/gl-js v0.0.0-20220119005834-d2da28d9ccfe // indirect
	github.com/fyne-io/glfw-js v0.0.0-20220120001248-ee7290d23504 // indirect
	github.com/fyne-io/image v0.0.0-20220602074514-4956b0afb3d2 // indirect
	github.com/go-gl/gl v0.0.0-20211210172815-726fda9656d6 // indirect
	github.com/go-gl/glfw/v3.3/glfw v0.0.0-20221017161538-93cebf72946b // indirect
	github.com/go-text/typesetting v0.0.0-20230405155246-bf9c697c6e16 // indirect
	github.com/godbus/dbus/v5 v5.1.0 // indirect
	github.com/gofrs/uuid v3.2.0+incompatible // indirect
	github.com/goki/freetype v0.0.0-20220119013949-7a161fd3728c // indirect
	github.com/gopherjs/gopherjs v1.17.2 // indirect
	github.com/jsummers/gobmp v0.0.0-20151104160322-e2ba15ffa76e // indirect
	github.com/pmezard/go-difflib v1.0.0 // indirect
	github.com/srwiley/oksvg v0.0.0-20220731023508-a61f04f16b76 // indirect
	github.com/srwiley/rasterx v0.0.0-20210519020934-456a8d69b780 // indirect
	github.com/stretchr/testify v1.8.0 // indirect
	github.com/tevino/abool v1.2.0 // indirect
	github.com/volatiletech/inflect v0.0.1 // indirect
	github.com/volatiletech/randomize v0.0.1 // indirect
	github.com/volatiletech/strmangle v0.0.1 // indirect
	github.com/yuin/goldmark v1.4.13 // indirect
	golang.org/x/image v0.3.0 // indirect
	golang.org/x/mobile v0.0.0-20211207041440-4e6c2922fdee // indirect
	golang.org/x/net v0.0.0-20220722155237-a158d28d115b // indirect
	golang.org/x/sys v0.0.0-20220722155257-8c9f86f7a55f // indirect
	golang.org/x/text v0.6.0 // indirect
	golang.org/x/xerrors v0.0.0-20200804184101-5ec99f83aff1 // indirect
	gopkg.in/yaml.v3 v3.0.1 // indirect
	honnef.co/go/js/dom v0.0.0-20210725211120-f030747120f2 // indirect
)
